{
    "photos": {
        "page": 1,
        "pages": 1632,
        "perpage": 100,
        "total": "163102",
        "photo": [
            {
                "id": "47941510682",
                "owner": "8740272@N04",
                "secret": "4dcb11afe9",
                "server": "65535",
                "farm": 66,
                "title": "Tony DiNozzo ♥",
                "ispublic": 1,
                "isfriend": 0,
                "isfamily": 0
            },
            {
                "id": "47941748653",
                "owner": "165465944@N08",
                "secret": "30c16e3a21",
                "server": "65535",
                "farm": 66,
                "title": "How to Get a Kitten to Sleep Through the Night",
                "ispublic": 1,
                "isfriend": 0,
                "isfamily": 0
            }
        ]
    },
    "stat": "ok"
}
